^C:\USERS\RYAN\APPDATA\LOCAL\TEMPORARY PROJECTS\WINDOWSFORMSAPPLICATION1\FORM1.RESX|C:\USERS\RYAN\APPDATA\LOCAL\TEMPORARY PROJECTS\WINDOWSFORMSAPPLICATION1\PROPERTIES\RESOURCES.RESX
^I:\OCTGNDCKCNVERTER\OCTGNDCKCNVERTER\FORM1.RESX|I:\OCTGNDCKCNVERTER\OCTGNDCKCNVERTER\PROPERTIES\RESOURCES.RESX
I:\OCTGNDCKCNVERTER\OCTGNDCKCNVERTER\OBJ\X86\DEBUG\WINDOWSFORMSAPPLICATION1.FORM1.RESOURCES
I:\OCTGNDCKCNVERTER\OCTGNDCKCNVERTER\OBJ\X86\DEBUG\WINDOWSFORMSAPPLICATION1.PROPERTIES.RESOURCES.RESOURCES
^C:\USERS\RYAN\DESKTOP\OCTGNDCKCNVERTER\OCTGNDCKCNVERTER\FORM1.RESX|C:\USERS\RYAN\DESKTOP\OCTGNDCKCNVERTER\OCTGNDCKCNVERTER\PROPERTIES\RESOURCES.RESX
C:\USERS\RYAN\DESKTOP\OCTGNDCKCNVERTER\OCTGNDCKCNVERTER\OBJ\X86\DEBUG\WINDOWSFORMSAPPLICATION1.FORM1.RESOURCES
C:\USERS\RYAN\DESKTOP\OCTGNDCKCNVERTER\OCTGNDCKCNVERTER\OBJ\X86\DEBUG\WINDOWSFORMSAPPLICATION1.PROPERTIES.RESOURCES.RESOURCES
^D:\CODES\ODC\OCTGNDCKCNVERTER\FORM1.RESX|D:\CODES\ODC\OCTGNDCKCNVERTER\PROPERTIES\RESOURCES.RESX
D:\CODES\ODC\OCTGNDCKCNVERTER\OBJ\X86\DEBUG\WINDOWSFORMSAPPLICATION1.FORM1.RESOURCES
D:\CODES\ODC\OCTGNDCKCNVERTER\OBJ\X86\DEBUG\WINDOWSFORMSAPPLICATION1.PROPERTIES.RESOURCES.RESOURCES
